daro-training-site – Import/Export Data
…
…

readxl

read_excel() - read xls or xlsx files

…

Reading data (import)

nobel <- read_csv(file = "../data/import/nobel.csv")
nobel

# A tibble: 935 × 26
      id firstname   surname  year category affiliation city  country
   <dbl> <chr>       <chr>   <dbl> <chr>    <chr>       <chr> <chr>  
 1     1 Wilhelm Co… Röntgen  1901 Physics  Munich Uni… Muni… Germany
 2     2 Hendrik A.  Lorentz  1902 Physics  Leiden Uni… Leid… Nether…
 3     3 Pieter      Zeeman   1902 Physics  Amsterdam … Amst… Nether…
 4     4 Henri       Becque…  1903 Physics  École Poly… Paris France 
 5     5 Pierre      Curie    1903 Physics  École muni… Paris France 
 6     6 Marie       Curie    1903 Physics  <NA>        <NA>  <NA>   
 7     6 Marie       Curie    1911 Chemist… Sorbonne U… Paris France 
 8     8 Lord        Raylei…  1904 Physics  Royal Inst… Lond… United…
 9     9 Philipp     Lenard   1905 Physics  Kiel Unive… Kiel  Germany
10    10 J.J.        Thomson  1906 Physics  University… Camb… United…
# ℹ 925 more rows
# ℹ 18 more variables: born_date <date>, died_date <date>,
#   gender <chr>, born_city <chr>, born_country <chr>,
#   born_country_code <chr>, died_city <chr>, died_country <chr>,
#   died_country_code <chr>, overall_motivation <chr>, share <dbl>,
#   motivation <chr>, born_country_original <chr>,
#   born_city_original <chr>, died_country_original <chr>, …
…
