daro-training-site – Labelled Data
…
Make this change to a new dataset so you can compare and make sure the variable names were assigned correctly

Have a dataset with the old and new variable names as columns so you know the changes are aligned (calling this “metavars”)

df %>% 
  rename_with(~ new_varnames, 
              all_of(old_varnames))

rename_with example

spss_meta_vars %>% 
  select(varname,new_varname)

# A tibble: 57 × 2
   varname            new_varname
   <chr>              <chr>      
 1 CaseId             CaseId     
 2 LastConnectionDate LastConnec…
 3 LastConnectionSta… LastConnec…
 4 ConnectionDuratio… Connection…
 5 ConnectionDuratio… Connection…
 6 LastQuestionFilled LastQuesti…
 7 NumberOfConnectio… NumberOfCo…
 8 resDisposition     resDisposi…
 9 TotalDurationSec   TotalDurat…
10 Device             Device     
# ℹ 47 more rows
…
[1] "QS: State"

Relabel Multiple Variables - All at once

Important Notes for Quality

Make this change to a new dataset so you can compare and make sure the variable labels were assigned correctly

Have a dataset with the varible name and labels as columns so you know the changes are aligned (calling this “metavars”)

spss_meta_vars %>% 
  select(varname, new_label)

# A tibble: 57 × 2
   varname                     new_label                        
   <chr>                       <chr>                            
 1 CaseId                      Case ID                          
 2 LastConnectionDate          Last connection date             
 3 LastConnectionStartTime     Start time of last connection    
 4 ConnectionDurationInSeconds Duration of connection in seconds
 5 ConnectionDurationInMinutes Duration of connection in minutes
 6 LastQuestionFilled          Last question filled             
 7 NumberOfConnections         Number of connections            
 8 resDisposition              Disposition                      
 9 TotalDurationSec            Total Duration (sec.)            
10 Device                      Device                           
# ℹ 47 more rows
…
