daro-training-site – Data Attributes
…
date() will parse just the date component of a datetime variable

year() and hour() will parse just the year and hour components

delimiters are ingored when creating the variables: “2025/07/10” and “20250710” will both create a date variable without having to specify the delimiter

lubridate examples

spss_ex %>% 
  filter(LastConnectionDate != "") %>% 
  mutate(LastDate_Formatted = 
           ymd(LastConnectionDate)) %>% 
  select(LastConnectionDate, LastDate_Formatted)

# A tibble: 736 × 2
   LastConnectionDate LastDate_Formatted
   <chr>              <date>            
 1 20250321           2025-03-21        
 2 20250410           2025-04-10        
 3 20250321           2025-03-21        
 4 20250321           2025-03-21        
 5 20250321           2025-03-21        
 6 20250321           2025-03-21        
 7 20250321           2025-03-21        
 8 20250410           2025-04-10        
 9 20250410           2025-04-10        
10 20250410           2025-04-10        
# ℹ 726 more rows

spss_ex %>% 
  filter(LastConnectionStartTime != "") %>% 
  mutate(LastStartTime_Formatted =
           parse_date_time(LastConnectionStartTime, "HMS")) %>% 
  select(LastConnectionStartTime, LastStartTime_Formatted)

# A tibble: 736 × 2
   LastConnectionStartTime LastStartTime_Formatted
   <chr>                   <dttm>                 
 1 10:13:25                0000-01-01 10:13:25    
 2 15:51:47                0000-01-01 15:51:47    
 3 10:14:05                0000-01-01 10:14:05    
 4 10:26:43                0000-01-01 10:26:43    
 5 10:14:20                0000-01-01 10:14:20    
 6 10:25:03                0000-01-01 10:25:03    
 7 10:14:24                0000-01-01 10:14:24    
 8 15:52:35                0000-01-01 15:52:35    
 9 15:52:18                0000-01-01 15:52:18    
10 15:52:28                0000-01-01 15:52:28    
# ℹ 726 more rows

Note that the output here shows a “phantom” date when only a time is provided

lubridate examples (cont.)

spss_ex %>% 
  mutate(DateTime_Char = glue("{LastConnectionDate} {LastConnectionStartTime}"),
         LastDateTime_Formatted = ymd_hms(DateTime_Char)) %>% 
  filter(LastConnectionStartTime != "") %>% 
  select(LastConnectionDate, LastConnectionStartTime, 
         DateTime_Char, LastDateTime_Formatted)

# A tibble: 736 × 4
   LastConnectionDate LastConnectionStartTime DateTime_Char    
   <chr>              <chr>                   <glue>           
 1 20250321           10:13:25                20250321 10:13:25
 2 20250410           15:51:47                20250410 15:51:47
 3 20250321           10:14:05                20250321 10:14:05
 4 20250321           10:26:43                20250321 10:26:43
 5 20250321           10:14:20                20250321 10:14:20
 6 20250321           10:25:03                20250321 10:25:03
 7 20250321           10:14:24                20250321 10:14:24
 8 20250410           15:52:35                20250410 15:52:35
 9 20250410           15:52:18                20250410 15:52:18
10 20250410           15:52:28                20250410 15:52:28
# ℹ 726 more rows
# ℹ 1 more variable: LastDateTime_Formatted <dttm>
…
