daro-training-site – Working with a single dataset
…
  Working with a single dataset

Data: Penguins

# A tibble: 344 × 8
   species island bill_len bill_dep flipper_len body_mass sex    year
   <fct>   <fct>     <dbl>    <dbl>       <int>     <int> <fct> <int>
 1 Adelie  Torge…     39.1     18.7         181      3750 male   2007
 2 Adelie  Torge…     39.5     17.4         186      3800 fema…  2007
 3 Adelie  Torge…     40.3     18           195      3250 fema…  2007
 4 Adelie  Torge…     NA       NA            NA        NA <NA>   2007
 5 Adelie  Torge…     36.7     19.3         193      3450 fema…  2007
 6 Adelie  Torge…     39.3     20.6         190      3650 male   2007
 7 Adelie  Torge…     38.9     17.8         181      3625 fema…  2007
 8 Adelie  Torge…     39.2     19.6         195      4675 male   2007
 9 Adelie  Torge…     34.1     18.1         193      3475 <NA>   2007
10 Adelie  Torge…     42       20.2         190      4250 <NA>   2007
# ℹ 334 more rows

select and arrange

select - keep variables

penguins %>%
  select(species, island)

# A tibble: 344 × 2
   species island   
   <fct>   <fct>    
 1 Adelie  Torgersen
 2 Adelie  Torgersen
 3 Adelie  Torgersen
 4 Adelie  Torgersen
 5 Adelie  Torgersen
 6 Adelie  Torgersen
 7 Adelie  Torgersen
 8 Adelie  Torgersen
 9 Adelie  Torgersen
10 Adelie  Torgersen
# ℹ 334 more rows

select - exclude variables

penguins %>%
  select(-year)

# A tibble: 344 × 7
   species island    bill_len bill_dep flipper_len body_mass sex   
   <fct>   <fct>        <dbl>    <dbl>       <int>     <int> <fct> 
 1 Adelie  Torgersen     39.1     18.7         181      3750 male  
 2 Adelie  Torgersen     39.5     17.4         186      3800 female
 3 Adelie  Torgersen     40.3     18           195      3250 female
 4 Adelie  Torgersen     NA       NA            NA        NA <NA>  
 5 Adelie  Torgersen     36.7     19.3         193      3450 female
 6 Adelie  Torgersen     39.3     20.6         190      3650 male  
 7 Adelie  Torgersen     38.9     17.8         181      3625 female
 8 Adelie  Torgersen     39.2     19.6         195      4675 male  
 9 Adelie  Torgersen     34.1     18.1         193      3475 <NA>  
10 Adelie  Torgersen     42       20.2         190      4250 <NA>  
# ℹ 334 more rows

select - multiple variables

a range of variables

penguins %>%
  select(species:bill_dep)

# A tibble: 344 × 4
   species island    bill_len bill_dep
   <fct>   <fct>        <dbl>    <dbl>
 1 Adelie  Torgersen     39.1     18.7
 2 Adelie  Torgersen     39.5     17.4
 3 Adelie  Torgersen     40.3     18  
 4 Adelie  Torgersen     NA       NA  
 5 Adelie  Torgersen     36.7     19.3
 6 Adelie  Torgersen     39.3     20.6
 7 Adelie  Torgersen     38.9     17.8
 8 Adelie  Torgersen     39.2     19.6
 9 Adelie  Torgersen     34.1     18.1
10 Adelie  Torgersen     42       20.2
# ℹ 334 more rows

select - multiple variables

a range of variables

variables with certain characteristics

penguins %>%
  select(starts_with("bill"))

# A tibble: 344 × 2
   bill_len bill_dep
      <dbl>    <dbl>
 1     39.1     18.7
 2     39.5     17.4
 3     40.3     18  
 4     NA       NA  
 5     36.7     19.3
 6     39.3     20.6
 7     38.9     17.8
 8     39.2     19.6
 9     34.1     18.1
10     42       20.2
# ℹ 334 more rows

penguins %>%
  select(ends_with("len"))

# A tibble: 344 × 2
   bill_len flipper_len
      <dbl>       <int>
 1     39.1         181
 2     39.5         186
 3     40.3         195
 4     NA            NA
 5     36.7         193
 6     39.3         190
 7     38.9         181
 8     39.2         195
 9     34.1         193
10     42           190
# ℹ 334 more rows
…
everything(): Matches all variables

last_col(): Select last variable, possibly with an offset

matches(): Matches a regular expression (a sequence of symbols/characters expressing a string/pattern to be searched for within text)

See help for any of these functions for more info, e.g. ?everything.

arrange in ascending / descending order

penguins %>%
  select(species,bill_dep) %>%
  arrange(bill_dep)

# A tibble: 344 × 2
   species bill_dep
   <fct>      <dbl>
 1 Gentoo      13.1
 2 Gentoo      13.2
 3 Gentoo      13.3
 4 Gentoo      13.4
 5 Gentoo      13.5
 6 Gentoo      13.5
 7 Gentoo      13.6
 8 Gentoo      13.7
 9 Gentoo      13.7
10 Gentoo      13.7
# ℹ 334 more rows

penguins %>%
  select(species,bill_dep) %>%
  arrange(desc(bill_dep))

# A tibble: 344 × 2
   species   bill_dep
   <fct>        <dbl>
 1 Adelie        21.5
 2 Adelie        21.2
 3 Adelie        21.2
 4 Adelie        21.1
 5 Adelie        21.1
 6 Adelie        21.1
 7 Chinstrap     20.8
 8 Adelie        20.7
 9 Adelie        20.7
10 Chinstrap     20.7
# ℹ 334 more rows

penguins %>%
  select(species,bill_dep) %>%
  arrange(-bill_dep)

# A tibble: 344 × 2
   species   bill_dep
   <fct>        <dbl>
 1 Adelie        21.5
 2 Adelie        21.2
 3 Adelie        21.2
 4 Adelie        21.1
 5 Adelie        21.1
 6 Adelie        21.1
 7 Chinstrap     20.8
 8 Adelie        20.7
 9 Adelie        20.7
10 Chinstrap     20.7
# ℹ 334 more rows

filter

filter to select a subset of rows

penguins %>%
  filter(species == "Adelie") 

# A tibble: 152 × 8
   species island bill_len bill_dep flipper_len body_mass sex    year
   <fct>   <fct>     <dbl>    <dbl>       <int>     <int> <fct> <int>
 1 Adelie  Torge…     39.1     18.7         181      3750 male   2007
 2 Adelie  Torge…     39.5     17.4         186      3800 fema…  2007
 3 Adelie  Torge…     40.3     18           195      3250 fema…  2007
 4 Adelie  Torge…     NA       NA            NA        NA <NA>   2007
 5 Adelie  Torge…     36.7     19.3         193      3450 fema…  2007
 6 Adelie  Torge…     39.3     20.6         190      3650 male   2007
 7 Adelie  Torge…     38.9     17.8         181      3625 fema…  2007
 8 Adelie  Torge…     39.2     19.6         195      4675 male   2007
 9 Adelie  Torge…     34.1     18.1         193      3475 <NA>   2007
10 Adelie  Torge…     42       20.2         190      4250 <NA>   2007
# ℹ 142 more rows
…
filter for more complex conditions

penguins %>%
  filter(
    species == "Adelie",
    bill_dep > 20 | bill_dep < 17
    ) %>%
  select(species:bill_dep)

# A tibble: 29 × 4
   species island    bill_len bill_dep
   <fct>   <fct>        <dbl>    <dbl>
 1 Adelie  Torgersen     39.3     20.6
 2 Adelie  Torgersen     42       20.2
 3 Adelie  Torgersen     38.6     21.2
 4 Adelie  Torgersen     34.6     21.1
 5 Adelie  Torgersen     42.5     20.7
 6 Adelie  Torgersen     46       21.5
 7 Adelie  Dream         39.5     16.7
 8 Adelie  Dream         39.2     21.1
 9 Adelie  Dream         37       16.9
10 Adelie  Dream         42.3     21.2
# ℹ 19 more rows
…
−+

15:00

mutate

mutate to add a new variable

penguins %>%
  mutate(bill_ratio = bill_len / bill_dep) %>%
  select(species:bill_dep,bill_ratio) %>%
  arrange(desc(bill_ratio))

# A tibble: 344 × 5
   species island bill_len bill_dep bill_ratio
   <fct>   <fct>     <dbl>    <dbl>      <dbl>
 1 Gentoo  Biscoe     51.3     14.2       3.61
 2 Gentoo  Biscoe     50.2     14.3       3.51
 3 Gentoo  Biscoe     59.6     17         3.51
 4 Gentoo  Biscoe     46.1     13.2       3.49
 5 Gentoo  Biscoe     54.3     15.7       3.46
 6 Gentoo  Biscoe     48.7     14.1       3.45
 7 Gentoo  Biscoe     47.2     13.7       3.45
 8 Gentoo  Biscoe     46.5     13.5       3.44
 9 Gentoo  Biscoe     55.1     16         3.44
10 Gentoo  Biscoe     48.5     14.1       3.44
# ℹ 334 more rows

Small and large bill ratios

penguins %>%
  mutate(bill_ratio = bill_len / bill_dep) %>%
  select(species,bill_ratio) %>%
  filter(bill_ratio < 2)

# A tibble: 35 × 2
   species bill_ratio
   <fct>        <dbl>
 1 Adelie        1.90
 2 Adelie        1.91
 3 Adelie        1.88
 4 Adelie        1.82
 5 Adelie        1.64
 6 Adelie        1.87
 7 Adelie        1.87
 8 Adelie        1.87
 9 Adelie        1.86
10 Adelie        1.94
# ℹ 25 more rows

penguins %>%
  mutate(bill_ratio = bill_len / bill_dep) %>%
  select(species,bill_ratio) %>%
  filter(bill_ratio > 3)

# A tibble: 109 × 2
   species bill_ratio
   <fct>        <dbl>
 1 Gentoo        3.49
 2 Gentoo        3.07
 3 Gentoo        3.45
 4 Gentoo        3.29
 5 Gentoo        3.28
 6 Gentoo        3.44
 7 Gentoo        3.11
 8 Gentoo        3.05
 9 Gentoo        3.23
10 Gentoo        3.04
# ℹ 99 more rows
…
