daro-training-site – Data Wrangling
…
First argument: data frame we’re working with , starwars

Second argument: variable we want to select, homeworld

Select a single column

View only homeworld

select( 
  starwars, 
  homeworld
  )

# A tibble: 87 × 1
   homeworld
   <chr>    
 1 Tatooine 
 2 Tatooine 
 3 Naboo    
 4 Tatooine 
 5 Alderaan 
 6 Tatooine 
 7 Tatooine 
 8 Tatooine 
 9 Tatooine 
10 Stewjon  
# ℹ 77 more rows
…
Result: data frame with 87 rows and 1 column

💡Tip! 

 dplyr functions always expect a data frame and always yield a data frame

Select multiple

Can select more than one variable

select(starwars,
       name, homeworld)

# A tibble: 87 × 2
   name               homeworld
   <chr>              <chr>    
 1 Luke Skywalker     Tatooine 
 2 C-3PO              Tatooine 
 3 R2-D2              Naboo    
 4 Darth Vader        Tatooine 
 5 Leia Organa        Alderaan 
 6 Owen Lars          Tatooine 
 7 Beru Whitesun Lars Tatooine 
 8 R5-D4              Tatooine 
 9 Biggs Darklighter  Tatooine 
10 Obi-Wan Kenobi     Stewjon  
# ℹ 77 more rows
…
Can have multiple datasets, arrays, etc. in your environment

When creating, editing, manipulating data you must first reference the data/object of interest

Workflow

Say we want to narrow our dataset to only see the name and homeworld variables and sort the data by homeworld

Select

starwars %>%
  select(name, homeworld)

# A tibble: 87 × 2
   name               homeworld
   <chr>              <chr>    
 1 Luke Skywalker     Tatooine 
 2 C-3PO              Tatooine 
 3 R2-D2              Naboo    
 4 Darth Vader        Tatooine 
 5 Leia Organa        Alderaan 
 6 Owen Lars          Tatooine 
 7 Beru Whitesun Lars Tatooine 
 8 R5-D4              Tatooine 
 9 Biggs Darklighter  Tatooine 
10 Obi-Wan Kenobi     Stewjon  
# ℹ 77 more rows

Select, then arrange

starwars %>%
  select(name, homeworld) %>%
  arrange(homeworld)

# A tibble: 87 × 2
   name                homeworld     
   <chr>               <chr>         
 1 Leia Organa         Alderaan      
 2 Bail Prestor Organa Alderaan      
 3 Raymus Antilles     Alderaan      
 4 Ratts Tyerel        Aleen Minor   
 5 Lobot               Bespin        
 6 Jek Tono Porkins    Bestine IV    
 7 Nute Gunray         Cato Neimoidia
 8 Ki-Adi-Mundi        Cerea         
 9 Mas Amedda          Champala      
10 Mon Mothma          Chandrila     
# ℹ 77 more rows
…
Pipes

In programming, a pipe is a technique for passing information from one process to another.

Start with the data frame starwars, and pass it to the select() function,

then we select the variables name and homeland,

and then we arrange the data frame by homeland

starwars %>%
  select(name, homeworld) %>%
  arrange(homeworld)

# A tibble: 87 × 2
   name                homeworld     
   <chr>               <chr>         
 1 Leia Organa         Alderaan      
 2 Bail Prestor Organa Alderaan      
 3 Raymus Antilles     Alderaan      
 4 Ratts Tyerel        Aleen Minor   
 5 Lobot               Bespin        
 6 Jek Tono Porkins    Bestine IV    
 7 Nute Gunray         Cato Neimoidia
 8 Ki-Adi-Mundi        Cerea         
 9 Mas Amedda          Champala      
10 Mon Mothma          Chandrila     
# ℹ 77 more rows
…
